{"page":"1","per_page":25,"pages":50,"total":1250,"shots":[{"id":1380377,"title":"Done is better than perfect","height":600,"width":800,"likes_count":0,"comments_count":1,"rebounds_count":0,"url":"http://dribbble.com/shots/1380377-Done-is-better-than-perfect","short_url":"http://drbl.in/jQzL","views_count":2,"rebound_source_id":null,"image_url":"http://d13yacurqjgara.cloudfront.net/users/316226/screenshots/1380377/2014-01-15-lettering-dribbble.png","image_teaser_url":"http://d13yacurqjgara.cloudfront.net/users/316226/screenshots/1380377/2014-01-15-lettering-dribbble_teaser.png","image_400_url":"http://d13yacurqjgara.cloudfront.net/users/316226/screenshots/1380377/2014-01-15-lettering-dribbble_1x.png","player":{"id":316226,"name":"Carolyn Zhang","location":"Cambridge, MA","followers_count":23,"draftees_count":0,"likes_count":113,"likes_received_count":67,"comments_count":4,"comments_received_count":15,"rebounds_count":0,"rebounds_received_count":0,"url":"http://dribbble.com/carolynz","avatar_url":"http://d13yacurqjgara.cloudfront.net/users/316226/avatars/normal/2013-04-14_19.06.08.jpg?1365982305","username":"carolynz","twitter_screen_name":"carolynz","website_url":null,"drafted_by_player_id":7435,"shots_count":3,"following_count":106,"created_at":"2013/04/13 02:37:26 -0400"},"created_at":"2014/01/16 03:26:50 -0500"},{"id":1380375,"title":"DocForYou // Pilulier","height":300,"width":400,"likes_count":0,"comments_count":0,"rebounds_count":0,"url":"http://dribbble.com/shots/1380375-DocForYou-Pilulier","short_url":"http://drbl.in/jQzJ","views_count":13,"rebound_source_id":null,"image_url":"http://d13yacurqjgara.cloudfront.net/users/13984/screenshots/1380375/docforyou-pilulier.jpg","image_teaser_url":"http://d13yacurqjgara.cloudfront.net/users/13984/screenshots/1380375/docforyou-pilulier_teaser.jpg","player":{"id":13984,"name":"Olivier Pineda","location":"france","followers_count":686,"draftees_count":4,"likes_count":154,"likes_received_count":2269,"comments_count":39,"comments_received_count":150,"rebounds_count":0,"rebounds_received_count":0,"url":"http://dribbble.com/olivierpineda","avatar_url":"http://d13yacurqjgara.cloudfront.net/users/13984/avatars/normal/P-300.png?1376985974","username":"olivierpineda","twitter_screen_name":"olivierpineda","website_url":"http://www.olivierpineda.com","drafted_by_player_id":5793,"shots_count":81,"following_count":110,"created_at":"2011/01/26 16:17:41 -0500"},"created_at":"2014/01/16 03:21:17 -0500"},{"id":1380374,"title":"A Runde Sach","height":300,"width":400,"likes_count":1,"comments_count":2,"rebounds_count":0,"url":"http://dribbble.com/shots/1380374-A-Runde-Sach","short_url":"http://drbl.in/jQzI","views_count":9,"rebound_source_id":null,"image_url":"http://d13yacurqjgara.cloudfront.net/users/98437/screenshots/1380374/a-runde_sach.jpg","image_teaser_url":"http://d13yacurqjgara.cloudfront.net/users/98437/screenshots/1380374/a-runde_sach_teaser.jpg","player":{"id":98437,"name":"Robert Bree","location":"Munich Germany","followers_count":90,"draftees_count":0,"likes_count":1517,"likes_received_count":654,"comments_count":410,"comments_received_count":107,"rebounds_count":1,"rebounds_received_count":0,"url":"http://dribbble.com/Robert70","avatar_url":"http://d13yacurqjgara.cloudfront.net/users/98437/avatars/original/FB_Web.jpg?1328190596","username":"Robert70","twitter_screen_name":null,"website_url":"http://www.rb-kommunikation.de","drafted_by_player_id":4536,"shots_count":67,"following_count":89,"created_at":"2012/02/02 08:43:22 -0500"},"created_at":"2014/01/16 03:21:15 -0500"},{"id":1380373,"title":"BP","height":300,"width":400,"likes_count":0,"comments_count":0,"rebounds_count":0,"url":"http://dribbble.com/shots/1380373-BP","short_url":"http://drbl.in/jQzH","views_count":6,"rebound_source_id":null,"image_url":"http://d13yacurqjgara.cloudfront.net/users/238335/screenshots/1380373/bp.png","image_teaser_url":"http://d13yacurqjgara.cloudfront.net/users/238335/screenshots/1380373/bp_teaser.png","player":{"id":238335,"name":"Denis Z","location":"Moscow","followers_count":88,"draftees_count":0,"likes_count":706,"likes_received_count":277,"comments_count":47,"comments_received_count":45,"rebounds_count":1,"rebounds_received_count":1,"url":"http://dribbble.com/znakar","avatar_url":"http://d13yacurqjgara.cloudfront.net/users/238335/avatars/normal/%D0%BB%D0%BE%D0%B3%D0%BE.png?1369491865","username":"znakar","twitter_screen_name":null,"website_url":"https://www.fl.ru/users/Johndenis/","drafted_by_player_id":114088,"shots_count":17,"following_count":215,"created_at":"2012/11/16 22:04:24 -0500"},"created_at":"2014/01/16 03:18:56 -0500"},{"id":1380372,"title":"Thanks Matt Stevens!","height":600,"width":800,"likes_count":1,"comments_count":2,"rebounds_count":0,"url":"http://dribbble.com/shots/1380372-Thanks-Matt-Stevens","short_url":"http://drbl.in/jQzG","views_count":10,"rebound_source_id":null,"image_url":"http://d13yacurqjgara.cloudfront.net/users/479530/screenshots/1380372/thanks_matt.jpg","image_teaser_url":"http://d13yacurqjgara.cloudfront.net/users/479530/screenshots/1380372/thanks_matt_teaser.jpg","image_400_url":"http://d13yacurqjgara.cloudfront.net/users/479530/screenshots/1380372/thanks_matt_1x.jpg","player":{"id":479530,"name":"Dexter Adams","location":"North Carolina","followers_count":2,"draftees_count":0,"likes_count":0,"likes_received_count":1,"comments_count":1,"comments_received_count":2,"rebounds_count":0,"rebounds_received_count":0,"url":"http://dribbble.com/D3XT3R","avatar_url":"http://d13yacurqjgara.cloudfront.net/users/479530/avatars/normal/Me_Small.jpg?1389813365","username":"D3XT3R","twitter_screen_name":null,"website_url":"http://dapd.net","drafted_by_player_id":4454,"shots_count":1,"following_count":0,"created_at":"2014/01/15 13:59:10 -0500"},"created_at":"2014/01/16 03:16:00 -0500"},{"id":1380371,"title":"Creativedash Studio","height":600,"width":800,"likes_count":26,"comments_count":4,"rebounds_count":0,"url":"http://dribbble.com/shots/1380371-Creativedash-Studio","short_url":"http://drbl.in/jQzF","views_count":147,"rebound_source_id":null,"image_url":"http://d13yacurqjgara.cloudfront.net/users/107759/screenshots/1380371/cd.gif","image_teaser_url":"http://d13yacurqjgara.cloudfront.net/users/107759/screenshots/1380371/cd_teaser.gif","image_400_url":"http://d13yacurqjgara.cloudfront.net/users/107759/screenshots/1380371/cd_1x.gif","player":{"id":107759,"name":"Creativedash","location":"San Francisco, CA","followers_count":22221,"draftees_count":6,"likes_count":1099,"likes_received_count":112081,"comments_count":1193,"comments_received_count":8221,"rebounds_count":16,"rebounds_received_count":83,"url":"http://dribbble.com/Creativedash","avatar_url":"http://d13yacurqjgara.cloudfront.net/users/107759/avatars/normal/cd-logo.png?1380943489","username":"Creativedash","twitter_screen_name":"creativedash","website_url":"http://www.creativeda.sh","drafted_by_player_id":null,"shots_count":555,"following_count":325,"created_at":"2012/02/25 01:29:44 -0500"},"created_at":"2014/01/16 03:14:20 -0500"},{"id":1380370,"title":"Bits app for iOS","height":600,"width":800,"likes_count":1,"comments_count":1,"rebounds_count":0,"url":"http://dribbble.com/shots/1380370-Bits-app-for-iOS","short_url":"http://drbl.in/jQzE","views_count":10,"rebound_source_id":null,"image_url":"http://d13yacurqjgara.cloudfront.net/users/205984/screenshots/1380370/iphone5.png","image_teaser_url":"http://d13yacurqjgara.cloudfront.net/users/205984/screenshots/1380370/iphone5_teaser.png","image_400_url":"http://d13yacurqjgara.cloudfront.net/users/205984/screenshots/1380370/iphone5_1x.png","player":{"id":205984,"name":"Nina Nikolaeva","location":"Saint-Petersburg","followers_count":10,"draftees_count":0,"likes_count":101,"likes_received_count":98,"comments_count":12,"comments_received_count":21,"rebounds_count":0,"rebounds_received_count":0,"url":"http://dribbble.com/NikolaevaNina","avatar_url":"http://d13yacurqjgara.cloudfront.net/users/205984/avatars/normal/ava.png?1359035828","username":"NikolaevaNina","twitter_screen_name":"NikolaevaNina","website_url":"http://getnumi.info","drafted_by_player_id":88134,"shots_count":15,"following_count":14,"created_at":"2012/09/13 08:18:12 -0400"},"created_at":"2014/01/16 03:13:16 -0500"},{"id":1380369,"title":"T Shirt Design 1400","height":300,"width":400,"likes_count":0,"comments_count":1,"rebounds_count":0,"url":"http://dribbble.com/shots/1380369-T-Shirt-Design-1400","short_url":"http://drbl.in/jQzD","views_count":7,"rebound_source_id":null,"image_url":"http://d13yacurqjgara.cloudfront.net/users/25328/screenshots/1380369/t-shirt_design_1400.jpg","image_teaser_url":"http://d13yacurqjgara.cloudfront.net/users/25328/screenshots/1380369/t-shirt_design_1400_teaser.jpg","player":{"id":25328,"name":"Tshirt-Factory","location":"Somewhere over the rainbow","followers_count":471,"draftees_count":0,"likes_count":647,"likes_received_count":3593,"comments_count":608,"comments_received_count":694,"rebounds_count":0,"rebounds_received_count":0,"url":"http://dribbble.com/tshirt_factory","avatar_url":"http://d13yacurqjgara.cloudfront.net/users/25328/avatars/original/adrian.jpg?1314565079","username":"tshirt_factory","twitter_screen_name":"tshirt_factory","website_url":"http://www.tshirt-factory.com","drafted_by_player_id":29963,"shots_count":554,"following_count":102,"created_at":"2011/03/25 13:51:24 -0400"},"created_at":"2014/01/16 03:13:03 -0500"},{"id":1380368,"title":"Hyundai Leasing Print","height":600,"width":800,"likes_count":0,"comments_count":0,"rebounds_count":0,"url":"http://dribbble.com/shots/1380368-Hyundai-Leasing-Print","short_url":"http://drbl.in/jQzC","views_count":9,"rebound_source_id":null,"image_url":"http://d13yacurqjgara.cloudfront.net/users/456593/screenshots/1380368/hyundai_i30_desky_1.jpg","image_teaser_url":"http://d13yacurqjgara.cloudfront.net/users/456593/screenshots/1380368/hyundai_i30_desky_1_teaser.jpg","image_400_url":"http://d13yacurqjgara.cloudfront.net/users/456593/screenshots/1380368/hyundai_i30_desky_1_1x.jpg","player":{"id":456593,"name":"Jakub Jordanidis","location":"Prague","followers_count":32,"draftees_count":0,"likes_count":100,"likes_received_count":86,"comments_count":8,"comments_received_count":8,"rebounds_count":0,"rebounds_received_count":0,"url":"http://dribbble.com/Jordanidis.cz","avatar_url":"http://d13yacurqjgara.cloudfront.net/users/456593/avatars/normal/ICO_jordanidis.png?1386614222","username":"Jordanidis.cz","twitter_screen_name":"JordanidisCZ","website_url":"http://www.jordanidis.cz","drafted_by_player_id":3158,"shots_count":14,"following_count":79,"created_at":"2013/12/06 02:04:02 -0500"},"created_at":"2014/01/16 03:09:55 -0500"},{"id":1380367,"title":"Jollyface Icon","height":300,"width":400,"likes_count":4,"comments_count":2,"rebounds_count":0,"url":"http://dribbble.com/shots/1380367-Jollyface-Icon","short_url":"http://drbl.in/jQzB","views_count":14,"rebound_source_id":1038583,"image_url":"http://d13yacurqjgara.cloudfront.net/users/155943/screenshots/1380367/jollyface_icon.png","image_teaser_url":"http://d13yacurqjgara.cloudfront.net/users/155943/screenshots/1380367/jollyface_icon_teaser.png","player":{"id":155943,"name":"Niklas Rekola","location":"Finland","followers_count":24,"draftees_count":0,"likes_count":323,"likes_received_count":110,"comments_count":37,"comments_received_count":25,"rebounds_count":2,"rebounds_received_count":0,"url":"http://dribbble.com/Mushcube","avatar_url":"http://d13yacurqjgara.cloudfront.net/users/155943/avatars/normal/Nikkeleaks.jpg?1386141609","username":"Mushcube","twitter_screen_name":null,"website_url":"http://mushcube.deviantart.com","drafted_by_player_id":4528,"shots_count":13,"following_count":55,"created_at":"2012/05/30 13:44:29 -0400"},"created_at":"2014/01/16 03:08:51 -0500"},{"id":1380366,"title":"Sketch vs Flat vs Skeuomorphism","height":600,"width":800,"likes_count":2,"comments_count":1,"rebounds_count":0,"url":"http://dribbble.com/shots/1380366-Sketch-vs-Flat-vs-Skeuomorphism","short_url":"http://drbl.in/jQzA","views_count":12,"rebound_source_id":null,"image_url":"http://d13yacurqjgara.cloudfront.net/users/16785/screenshots/1380366/sketch_flat_skeuomorphism.png","image_teaser_url":"http://d13yacurqjgara.cloudfront.net/users/16785/screenshots/1380366/sketch_flat_skeuomorphism_teaser.png","image_400_url":"http://d13yacurqjgara.cloudfront.net/users/16785/screenshots/1380366/sketch_flat_skeuomorphism_1x.png","player":{"id":16785,"name":"chardy","location":"Singapore","followers_count":8,"draftees_count":0,"likes_count":2,"likes_received_count":44,"comments_count":4,"comments_received_count":11,"rebounds_count":0,"rebounds_received_count":0,"url":"http://dribbble.com/chardy","avatar_url":"http://d13yacurqjgara.cloudfront.net/users/16785/avatars/normal/chardy-avatar1.png?1389609830","username":"chardy","twitter_screen_name":"chardy","website_url":"http://www.rubify.com","drafted_by_player_id":6711,"shots_count":2,"following_count":54,"created_at":"2011/02/08 03:27:45 -0500"},"created_at":"2014/01/16 03:03:47 -0500"},{"id":1380365,"title":"Bible icon sketches","height":300,"width":400,"likes_count":25,"comments_count":6,"rebounds_count":0,"url":"http://dribbble.com/shots/1380365-Bible-icon-sketches","short_url":"http://drbl.in/jQzz","views_count":136,"rebound_source_id":null,"image_url":"http://d13yacurqjgara.cloudfront.net/users/14268/screenshots/1380365/bible.gif","image_teaser_url":"http://d13yacurqjgara.cloudfront.net/users/14268/screenshots/1380365/bible_teaser.gif","player":{"id":14268,"name":"Eddie Lobanovskiy","location":"Sarasota, FL","followers_count":26945,"draftees_count":12,"likes_count":2449,"likes_received_count":87554,"comments_count":2213,"comments_received_count":6071,"rebounds_count":22,"rebounds_received_count":67,"url":"http://dribbble.com/lobanovskiy","avatar_url":"http://d13yacurqjgara.cloudfront.net/users/14268/avatars/normal/me.jpg?1383933441","username":"lobanovskiy","twitter_screen_name":"lobanovskiy","website_url":"http://dribbble.com/uf","drafted_by_player_id":6281,"shots_count":152,"following_count":536,"created_at":"2011/01/27 19:54:44 -0500"},"created_at":"2014/01/16 03:00:45 -0500"},{"id":1380364,"title":"Flighhunter","height":300,"width":400,"likes_count":1,"comments_count":1,"rebounds_count":0,"url":"http://dribbble.com/shots/1380364-Flighhunter","short_url":"http://drbl.in/jQzy","views_count":14,"rebound_source_id":null,"image_url":"http://d13yacurqjgara.cloudfront.net/users/106340/screenshots/1380364/400.jpg","image_teaser_url":"http://d13yacurqjgara.cloudfront.net/users/106340/screenshots/1380364/400_teaser.jpg","player":{"id":106340,"name":"Andrey Zhukov","location":"Russia, Saint-Petersburg","followers_count":91,"draftees_count":0,"likes_count":270,"likes_received_count":175,"comments_count":17,"comments_received_count":31,"rebounds_count":0,"rebounds_received_count":0,"url":"http://dribbble.com/aminis","avatar_url":"http://d13yacurqjgara.cloudfront.net/users/106340/avatars/original/avatar-300.jpg?1329902450","username":"aminis","twitter_screen_name":null,"website_url":"http://www.aminis.ru","drafted_by_player_id":85993,"shots_count":18,"following_count":80,"created_at":"2012/02/22 04:19:46 -0500"},"created_at":"2014/01/16 03:00:31 -0500"},{"id":1380363,"title":"Cat Blinking","height":300,"width":400,"likes_count":1,"comments_count":0,"rebounds_count":0,"url":"http://dribbble.com/shots/1380363-Cat-Blinking","short_url":"http://drbl.in/jQzx","views_count":11,"rebound_source_id":null,"image_url":"http://d13yacurqjgara.cloudfront.net/users/116349/screenshots/1380363/hey.gif","image_teaser_url":"http://d13yacurqjgara.cloudfront.net/users/116349/screenshots/1380363/hey_teaser.gif","player":{"id":116349,"name":"Teepagorn 'Champ' W.","location":null,"followers_count":35,"draftees_count":0,"likes_count":1,"likes_received_count":138,"comments_count":1,"comments_received_count":13,"rebounds_count":0,"rebounds_received_count":0,"url":"http://dribbble.com/tpagon","avatar_url":"http://d13yacurqjgara.cloudfront.net/users/116349/avatars/normal/avt.jpg?1373560820","username":"tpagon","twitter_screen_name":null,"website_url":null,"drafted_by_player_id":29591,"shots_count":9,"following_count":31,"created_at":"2012/03/15 12:19:35 -0400"},"created_at":"2014/01/16 02:57:57 -0500"},{"id":1380362,"title":"Clown playing basketball","height":300,"width":400,"likes_count":3,"comments_count":1,"rebounds_count":0,"url":"http://dribbble.com/shots/1380362-Clown-playing-basketball","short_url":"http://drbl.in/jQzw","views_count":10,"rebound_source_id":null,"image_url":"http://d13yacurqjgara.cloudfront.net/users/303368/screenshots/1380362/__2.gif","image_teaser_url":"http://d13yacurqjgara.cloudfront.net/users/303368/screenshots/1380362/__2_teaser.gif","player":{"id":303368,"name":"homeliuwei","location":"Changsha, China","followers_count":118,"draftees_count":0,"likes_count":158,"likes_received_count":353,"comments_count":47,"comments_received_count":76,"rebounds_count":1,"rebounds_received_count":0,"url":"http://dribbble.com/homeliuwei","avatar_url":"http://d13yacurqjgara.cloudfront.net/users/303368/avatars/normal/%E5%85%AC%E7%89%9B.png?1366715393","username":"homeliuwei","twitter_screen_name":null,"website_url":"http://weibo.com/u/1705416254","drafted_by_player_id":182721,"shots_count":7,"following_count":143,"created_at":"2013/03/24 20:56:33 -0400"},"created_at":"2014/01/16 02:57:51 -0500"},{"id":1380361,"title":"Four derpskulls","height":300,"width":400,"likes_count":1,"comments_count":0,"rebounds_count":0,"url":"http://dribbble.com/shots/1380361-Four-derpskulls","short_url":"http://drbl.in/jQzv","views_count":18,"rebound_source_id":null,"image_url":"http://d13yacurqjgara.cloudfront.net/users/622/screenshots/1380361/ok.jpg","image_teaser_url":"http://d13yacurqjgara.cloudfront.net/users/622/screenshots/1380361/ok_teaser.jpg","player":{"id":622,"name":"Pasquale D'Silva","location":"San Francisco","followers_count":2476,"draftees_count":14,"likes_count":847,"likes_received_count":9455,"comments_count":498,"comments_received_count":1501,"rebounds_count":26,"rebounds_received_count":23,"url":"http://dribbble.com/pasquale","avatar_url":"http://d13yacurqjgara.cloudfront.net/users/622/avatars/original/psqlHeadCookie.png?1344974180","username":"pasquale","twitter_screen_name":"pasql","website_url":"http://pasqualedsilva.com","drafted_by_player_id":212,"shots_count":321,"following_count":255,"created_at":"2010/01/19 19:23:19 -0500"},"created_at":"2014/01/16 02:56:11 -0500"},{"id":1380360,"title":"Thyme - For Android","height":600,"width":800,"likes_count":1,"comments_count":1,"rebounds_count":0,"url":"http://dribbble.com/shots/1380360-Thyme-For-Android","short_url":"http://drbl.in/jQzu","views_count":19,"rebound_source_id":null,"image_url":"http://d13yacurqjgara.cloudfront.net/users/15414/screenshots/1380360/release-android.png","image_teaser_url":"http://d13yacurqjgara.cloudfront.net/users/15414/screenshots/1380360/release-android_teaser.png","image_400_url":"http://d13yacurqjgara.cloudfront.net/users/15414/screenshots/1380360/release-android_1x.png","player":{"id":15414,"name":"Thuy Gia Nguyen","location":"Oslo, Norway","followers_count":288,"draftees_count":4,"likes_count":1254,"likes_received_count":941,"comments_count":224,"comments_received_count":174,"rebounds_count":12,"rebounds_received_count":10,"url":"http://dribbble.com/thuygia","avatar_url":"http://d13yacurqjgara.cloudfront.net/users/15414/avatars/normal/408085_10152276521330624_324574805_n.jpg?1377021707","username":"thuygia","twitter_screen_name":"thuygianguyen","website_url":"http://www.kumiko.no","drafted_by_player_id":1642,"shots_count":44,"following_count":458,"created_at":"2011/02/02 04:30:05 -0500"},"created_at":"2014/01/16 02:54:13 -0500"},{"id":1380359,"title":"Logo option","height":600,"width":800,"likes_count":0,"comments_count":1,"rebounds_count":0,"url":"http://dribbble.com/shots/1380359-Logo-option","short_url":"http://drbl.in/jQzt","views_count":15,"rebound_source_id":null,"image_url":"http://d13yacurqjgara.cloudfront.net/users/477755/screenshots/1380359/logo1.jpg","image_teaser_url":"http://d13yacurqjgara.cloudfront.net/users/477755/screenshots/1380359/logo1_teaser.jpg","image_400_url":"http://d13yacurqjgara.cloudfront.net/users/477755/screenshots/1380359/logo1_1x.jpg","player":{"id":477755,"name":"Olga German","location":"Israel","followers_count":3,"draftees_count":0,"likes_count":2,"likes_received_count":5,"comments_count":2,"comments_received_count":4,"rebounds_count":0,"rebounds_received_count":0,"url":"http://dribbble.com/olgagerman","avatar_url":"http://d13yacurqjgara.cloudfront.net/users/477755/avatars/normal/6da7810f159f8b3fd6c7ae23d7f9515c.jpg?1389859093","username":"olgagerman","twitter_screen_name":null,"website_url":"https://www.behance.net/olgagerman","drafted_by_player_id":39,"shots_count":2,"following_count":1,"created_at":"2014/01/13 09:22:30 -0500"},"created_at":"2014/01/16 02:52:53 -0500"},{"id":1380358,"title":"Indonesia Berantas Korupsi","height":600,"width":800,"likes_count":1,"comments_count":1,"rebounds_count":0,"url":"http://dribbble.com/shots/1380358-Indonesia-Berantas-Korupsi","short_url":"http://drbl.in/jQzs","views_count":14,"rebound_source_id":null,"image_url":"http://d13yacurqjgara.cloudfront.net/users/416556/screenshots/1380358/indonesia_berantas_korupsi.jpg","image_teaser_url":"http://d13yacurqjgara.cloudfront.net/users/416556/screenshots/1380358/indonesia_berantas_korupsi_teaser.jpg","image_400_url":"http://d13yacurqjgara.cloudfront.net/users/416556/screenshots/1380358/indonesia_berantas_korupsi_1x.jpg","player":{"id":416556,"name":"HEVNgrafix Studio","location":"Bandung","followers_count":15,"draftees_count":0,"likes_count":23,"likes_received_count":69,"comments_count":17,"comments_received_count":25,"rebounds_count":0,"rebounds_received_count":0,"url":"http://dribbble.com/HEVNgrafix","avatar_url":"http://d13yacurqjgara.cloudfront.net/users/416556/avatars/normal/HEVNgrafix_new_logo_icon.png?1381199211","username":"HEVNgrafix","twitter_screen_name":"DuraliszHeaven","website_url":"http://www.HEVNgrafix.com","drafted_by_player_id":144014,"shots_count":22,"following_count":13,"created_at":"2013/10/07 08:49:53 -0400"},"created_at":"2014/01/16 02:52:00 -0500"},{"id":1380356,"title":"Mobile App","height":600,"width":800,"likes_count":5,"comments_count":3,"rebounds_count":0,"url":"http://dribbble.com/shots/1380356-Mobile-App","short_url":"http://drbl.in/jQzq","views_count":35,"rebound_source_id":null,"image_url":"http://d13yacurqjgara.cloudfront.net/users/477755/screenshots/1380356/drrr.jpg","image_teaser_url":"http://d13yacurqjgara.cloudfront.net/users/477755/screenshots/1380356/drrr_teaser.jpg","image_400_url":"http://d13yacurqjgara.cloudfront.net/users/477755/screenshots/1380356/drrr_1x.jpg","player":{"id":477755,"name":"Olga German","location":"Israel","followers_count":3,"draftees_count":0,"likes_count":2,"likes_received_count":5,"comments_count":2,"comments_received_count":4,"rebounds_count":0,"rebounds_received_count":0,"url":"http://dribbble.com/olgagerman","avatar_url":"http://d13yacurqjgara.cloudfront.net/users/477755/avatars/normal/6da7810f159f8b3fd6c7ae23d7f9515c.jpg?1389859093","username":"olgagerman","twitter_screen_name":null,"website_url":"https://www.behance.net/olgagerman","drafted_by_player_id":39,"shots_count":2,"following_count":1,"created_at":"2014/01/13 09:22:30 -0500"},"created_at":"2014/01/16 02:50:11 -0500"},{"id":1380355,"title":"Clairvoyant Club","height":300,"width":400,"likes_count":2,"comments_count":1,"rebounds_count":0,"url":"http://dribbble.com/shots/1380355-Clairvoyant-Club","short_url":"http://drbl.in/jQzp","views_count":53,"rebound_source_id":null,"image_url":"http://d13yacurqjgara.cloudfront.net/users/4521/screenshots/1380355/clairvoyantd.jpg","image_teaser_url":"http://d13yacurqjgara.cloudfront.net/users/4521/screenshots/1380355/clairvoyantd_teaser.jpg","player":{"id":4521,"name":"Glenn Jones","location":"Auckland, New Zealand","followers_count":10533,"draftees_count":1,"likes_count":3428,"likes_received_count":44957,"comments_count":243,"comments_received_count":3309,"rebounds_count":18,"rebounds_received_count":25,"url":"http://dribbble.com/Glennz","avatar_url":"http://d13yacurqjgara.cloudfront.net/users/4521/avatars/normal/profile_pic.jpg?1349299484","username":"Glennz","twitter_screen_name":"glennztees","website_url":"http://www.glennz.co.nz","drafted_by_player_id":444,"shots_count":275,"following_count":629,"created_at":"2010/09/23 23:36:52 -0400"},"created_at":"2014/01/16 02:50:05 -0500"},{"id":1380354,"title":"Landing page for recruitment","height":600,"width":800,"likes_count":1,"comments_count":1,"rebounds_count":0,"url":"http://dribbble.com/shots/1380354-Landing-page-for-recruitment","short_url":"http://drbl.in/jQzo","views_count":17,"rebound_source_id":null,"image_url":"http://d13yacurqjgara.cloudfront.net/users/5788/screenshots/1380354/d3.png","image_teaser_url":"http://d13yacurqjgara.cloudfront.net/users/5788/screenshots/1380354/d3_teaser.png","image_400_url":"http://d13yacurqjgara.cloudfront.net/users/5788/screenshots/1380354/d3_1x.png","player":{"id":5788,"name":"Mauricio Estrella","location":"Shanghai, China","followers_count":893,"draftees_count":10,"likes_count":2380,"likes_received_count":1590,"comments_count":129,"comments_received_count":116,"rebounds_count":1,"rebounds_received_count":1,"url":"http://dribbble.com/manicho","avatar_url":"http://d13yacurqjgara.cloudfront.net/users/5788/avatars/original/539431_10151717302416677_2083620702_n.jpeg?1340878348","username":"manicho","twitter_screen_name":"manicho","website_url":"http://ef.com","drafted_by_player_id":1639,"shots_count":15,"following_count":524,"created_at":"2010/11/14 04:46:40 -0500"},"created_at":"2014/01/16 02:48:31 -0500"},{"id":1380353,"title":"Creative Kids","height":600,"width":800,"likes_count":0,"comments_count":1,"rebounds_count":0,"url":"http://dribbble.com/shots/1380353-Creative-Kids","short_url":"http://drbl.in/jQzn","views_count":14,"rebound_source_id":null,"image_url":"http://d13yacurqjgara.cloudfront.net/users/416556/screenshots/1380353/creative_kids.jpg","image_teaser_url":"http://d13yacurqjgara.cloudfront.net/users/416556/screenshots/1380353/creative_kids_teaser.jpg","image_400_url":"http://d13yacurqjgara.cloudfront.net/users/416556/screenshots/1380353/creative_kids_1x.jpg","player":{"id":416556,"name":"HEVNgrafix Studio","location":"Bandung","followers_count":15,"draftees_count":0,"likes_count":23,"likes_received_count":69,"comments_count":17,"comments_received_count":25,"rebounds_count":0,"rebounds_received_count":0,"url":"http://dribbble.com/HEVNgrafix","avatar_url":"http://d13yacurqjgara.cloudfront.net/users/416556/avatars/normal/HEVNgrafix_new_logo_icon.png?1381199211","username":"HEVNgrafix","twitter_screen_name":"DuraliszHeaven","website_url":"http://www.HEVNgrafix.com","drafted_by_player_id":144014,"shots_count":22,"following_count":13,"created_at":"2013/10/07 08:49:53 -0400"},"created_at":"2014/01/16 02:45:01 -0500"},{"id":1380352,"title":"Stay Afloat","height":600,"width":800,"likes_count":1,"comments_count":0,"rebounds_count":0,"url":"http://dribbble.com/shots/1380352-Stay-Afloat","short_url":"http://drbl.in/jQzm","views_count":13,"rebound_source_id":null,"image_url":"http://d13yacurqjgara.cloudfront.net/users/416556/screenshots/1380352/stay_afloat.jpg","image_teaser_url":"http://d13yacurqjgara.cloudfront.net/users/416556/screenshots/1380352/stay_afloat_teaser.jpg","image_400_url":"http://d13yacurqjgara.cloudfront.net/users/416556/screenshots/1380352/stay_afloat_1x.jpg","player":{"id":416556,"name":"HEVNgrafix Studio","location":"Bandung","followers_count":15,"draftees_count":0,"likes_count":23,"likes_received_count":69,"comments_count":17,"comments_received_count":25,"rebounds_count":0,"rebounds_received_count":0,"url":"http://dribbble.com/HEVNgrafix","avatar_url":"http://d13yacurqjgara.cloudfront.net/users/416556/avatars/normal/HEVNgrafix_new_logo_icon.png?1381199211","username":"HEVNgrafix","twitter_screen_name":"DuraliszHeaven","website_url":"http://www.HEVNgrafix.com","drafted_by_player_id":144014,"shots_count":22,"following_count":13,"created_at":"2013/10/07 08:49:53 -0400"},"created_at":"2014/01/16 02:43:28 -0500"},{"id":1380349,"title":"My Bachelorette Party Invitation","height":300,"width":400,"likes_count":2,"comments_count":1,"rebounds_count":0,"url":"http://dribbble.com/shots/1380349-My-Bachelorette-Party-Invitation","short_url":"http://drbl.in/jQzj","views_count":15,"rebound_source_id":null,"image_url":"http://d13yacurqjgara.cloudfront.net/users/143977/screenshots/1380349/mybachelorette.jpg","image_teaser_url":"http://d13yacurqjgara.cloudfront.net/users/143977/screenshots/1380349/mybachelorette_teaser.jpg","player":{"id":143977,"name":"Yaniv kamak","location":"Tel-aviv, Israel","followers_count":76,"draftees_count":1,"likes_count":5,"likes_received_count":358,"comments_count":34,"comments_received_count":53,"rebounds_count":0,"rebounds_received_count":0,"url":"http://dribbble.com/yAniv-k","avatar_url":"http://d13yacurqjgara.cloudfront.net/users/143977/avatars/original/IMG_070-(1).jpg?1336468614","username":"yAniv-k","twitter_screen_name":null,"website_url":"http://bit.ly/LCCuDJ","drafted_by_player_id":75768,"shots_count":31,"following_count":4,"created_at":"2012/05/08 05:10:20 -0400"},"created_at":"2014/01/16 02:42:39 -0500"}]}